<?xml version="1.0" encoding="utf-8"?>
<!-- Generator: Adobe Illustrator 21.1.0, SVG Export Plug-In . SVG Version: 6.00 Build 0)  -->
<svg version="1.1" id="Слой_1" xmlns="http://www.w3.org/2000/svg" xmlns:xlink="http://www.w3.org/1999/xlink" x="0px" y="0px"
	 viewBox="0 0 162 162" style="enable-background:new 0 0 162 162;" xml:space="preserve">
<circle style="fill:#638cc2;" cx="80.8" cy="81.3" r="80"/>
<g>
	<g>
		<path style="fill:#FFFFFF;" d="M54.5,41.2h-1l-0.2-2.6h0c-1,2-2.9,2.9-4.9,2.9c-4.5,0-6.7-3.5-6.7-7.4c0-3.9,2.2-7.4,6.7-7.4
			c3,0,5.4,1.6,6,4.7H53c-0.2-1.6-1.9-3.6-4.6-3.6c-3.8,0-5.4,3.2-5.4,6.3c0,3.1,1.6,6.3,5.4,6.3c3.2,0,5-2.2,4.9-5.2h-4.9V34h6.1
			V41.2z"/>
		<path style="fill:#FFFFFF;" d="M57.6,27H59v13.1h8v1.2h-9.4V27z"/>
		<path style="fill:#FFFFFF;" d="M74.9,26.7c4.5,0,6.7,3.5,6.7,7.4c0,3.9-2.2,7.4-6.7,7.4c-4.5,0-6.7-3.5-6.7-7.4
			C68.1,30.2,70.4,26.7,74.9,26.7z M74.9,40.4c3.8,0,5.4-3.2,5.4-6.3c0-3.1-1.6-6.3-5.4-6.3c-3.8,0-5.4,3.2-5.4,6.3
			C69.5,37.2,71.1,40.4,74.9,40.4z"/>
		<path style="fill:#FFFFFF;" d="M84.2,27h6c2.4,0,4.6,0.8,4.6,3.5c0,1.5-1,2.9-2.5,3.2v0c1.8,0.2,3,1.6,3,3.5
			c0,1.4-0.5,4.1-5.1,4.1h-6V27z M85.6,33.2h4.7c2.2,0,3.2-1.1,3.2-2.4c0-1.8-1.1-2.7-3.2-2.7h-4.7V33.2z M85.6,40.1h4.7
			c2,0,3.8-0.7,3.8-2.9c0-1.8-1.4-2.8-3.8-2.8h-4.7V40.1z"/>
		<path style="fill:#FFFFFF;" d="M102.2,27h1.5l5.6,14.3h-1.5l-1.7-4.4h-6.5l-1.7,4.4h-1.5L102.2,27z M100.1,35.6h5.6l-2.8-7.3
			L100.1,35.6z"/>
		<path style="fill:#FFFFFF;" d="M111.1,27h1.4v13.1h8v1.2h-9.4V27z"/>
		<path style="fill:#FFFFFF;" d="M40.3,50h1.5l5.6,14.3H46l-1.7-4.4h-6.5L36,64.2h-1.5L40.3,50z M38.2,58.6h5.6L41,51.3L38.2,58.6z"
			/>
		<path style="fill:#FFFFFF;" d="M47.7,50h1.5l4.6,12.8h0L58.4,50h1.4l-5.3,14.3H53L47.7,50z"/>
		<path style="fill:#FFFFFF;" d="M61.6,50h9.9v1.2H63v5.2h8v1.2h-8v5.6h8.6v1.2h-10V50z"/>
		<path style="fill:#FFFFFF;" d="M74,50h6.5c2.4,0,4.3,1.1,4.3,3.7c0,1.8-0.9,3.3-2.8,3.6v0c1.9,0.2,2.4,1.5,2.5,3.2
			c0.1,1,0.1,2.9,0.7,3.7h-1.5c-0.3-0.6-0.3-1.6-0.4-2.2c-0.1-2-0.3-4.2-2.9-4.1h-5.2v6.3H74V50z M75.3,56.7h5.1
			c1.7,0,3.1-1,3.1-2.8s-1-2.8-3.1-2.8h-5.1V56.7z"/>
		<path style="fill:#FFFFFF;" d="M92,50h1.5l5.6,14.3h-1.5l-1.7-4.4h-6.5l-1.7,4.4h-1.5L92,50z M89.8,58.6h5.6l-2.8-7.3L89.8,58.6z"
			/>
		<path style="fill:#FFFFFF;" d="M113.1,64.2h-1l-0.2-2.6h0c-1,2-2.9,2.9-4.9,2.9c-4.5,0-6.7-3.5-6.7-7.4c0-3.9,2.2-7.4,6.7-7.4
			c3,0,5.4,1.6,6,4.7h-1.4c-0.2-1.6-1.9-3.6-4.6-3.6c-3.8,0-5.4,3.2-5.4,6.3c0,3.1,1.6,6.3,5.4,6.3c3.2,0,5-2.2,4.9-5.2H107V57h6.1
			V64.2z"/>
		<path style="fill:#FFFFFF;" d="M116.2,50h9.9v1.2h-8.5v5.2h8v1.2h-8v5.6h8.6v1.2h-10V50z"/>
	</g>
</g>
<g>
	<g>
		<path style="fill:#FFFFFF;" d="M49.4,111.8H31.7V104l18.2-24.5h7.6v25.3h5.6v7h-5.6v9.7h-8.1V111.8z M49.4,90.2h-0.2l-10.9,14.6
			h11V90.2z"/>
		<path style="fill:#FFFFFF;" d="M94.7,86.5H77.3l-1.7,9.5l0.1,0.1c2.3-2.3,4.9-3.2,8.2-3.2c8.3,0,13,6.4,13,14.3
			c0,8.6-7.1,15.3-15.6,15.1c-8.2,0-15.5-4.5-15.6-13.3h8.5c0.4,3.7,3.2,6.3,6.9,6.3c4.4,0,7.3-3.9,7.3-8.1c0-4.4-2.7-7.9-7.3-7.9
			c-3.1,0-4.7,1.1-6.4,3.4h-7.7l4.1-23.2h23.5V86.5z"/>
		<path style="fill:#FFFFFF;" d="M106.5,98.7c4,0,5.2,2.9,5.2,6.5c0,3.5-1.7,6-5.4,6c-3.9,0-5.3-2.6-5.3-6.1
			C101,101.5,102.7,98.7,106.5,98.7z M106.4,108.8c2,0,2.1-2.3,2.1-3.6c0-1.2-0.1-4-2-4c-2,0-2.2,2.5-2.2,4
			C104.3,106.4,104.3,108.8,106.4,108.8z M120,98.4h2.7l-13.2,23.8h-2.8L120,98.4z M123,109.5c4,0,5.2,2.8,5.2,6.3
			c0,3.5-1.7,6.2-5.4,6.2c-3.9,0-5.3-2.8-5.3-6.3C117.6,112.2,119.3,109.5,123,109.5z M122.9,119.6c2,0,2.1-2.5,2.1-3.8
			c0-1.2-0.1-3.8-2-3.8c-2,0-2.2,2.3-2.2,3.8C120.8,117.1,120.8,119.6,122.9,119.6z"/>
	</g>
</g>
<polyline id="Rainbow_4_" style="fill:#FFFFFF;" points="30.8,70.7 130.8,70.7 130.8,69.5 30.8,69.5 "/>
</svg>
