<?xml version="1.0" encoding="utf-8"?>
<!-- Generator: Adobe Illustrator 22.1.0, SVG Export Plug-In . SVG Version: 6.00 Build 0)  -->
<svg version="1.1" id="Layer_1" xmlns="http://www.w3.org/2000/svg" xmlns:xlink="http://www.w3.org/1999/xlink" x="0px" y="0px"
	 viewBox="0 0 250 250" style="enable-background:new 0 0 250 250;" xml:space="preserve">
<style type="text/css">
	.st0{fill:#FFFFFF;}
	.st1{fill:#FBB580;}
	.st2{fill:#282A32;}
	.st3{fill:#AEB1B4;}
	.st4{fill:#AB404B;}
	.st5{fill:#E77C22;}
	.st6{fill:#67696F;}
</style>
<title>MobileRoles</title>
<g id="Skilled_Trades">
	<path class="st0" d="M77.2,156.8c0,3.2,2.5,4.4,5.2,4.4c1.8,0,4.6-0.5,4.6-3s-3.6-3-7-3.9S73,152,73,147.5c0-4.9,4.6-7.2,8.9-7.2
		c5,0,9.5,2.2,9.5,7.6h-5c-0.2-2.9-2.2-3.6-4.7-3.6c-1.7,0-3.6,0.7-3.6,2.7c0,1.8,1.1,2.1,7.1,3.6c1.7,0.4,7,1.5,7,6.9
		c0,4.4-3.4,7.6-9.9,7.6c-5.3,0-10.2-2.6-10.1-8.4H77.2z"/>
	<path class="st0" d="M95.2,140.9h4.7v12.7l5.9-6.2h5.6l-6.4,6.3l7.2,10.9h-5.7l-4.8-7.6l-1.8,1.8v5.9h-4.7V140.9z"/>
	<path class="st0" d="M118.7,144.8H114v-3.9h4.7L118.7,144.8z M114,147.4h4.7v17.2H114V147.4z"/>
	<path class="st0" d="M122.5,140.9h4.7v23.7h-4.7V140.9z"/>
	<path class="st0" d="M131.1,140.9h4.7v23.7h-4.7V140.9z"/>
	<path class="st0" d="M143.4,157.2c0.1,3,1.6,4.4,4.2,4.4c1.6,0.1,3.1-0.8,3.7-2.2h4.1c-1.3,4.1-4.1,5.8-8,5.8c-5.4,0-8.8-3.7-8.8-9
		c0-5.2,3.6-9.1,8.8-9.1c5.9,0,8.7,4.9,8.3,10.2L143.4,157.2z M151.1,154.2c-0.4-2.4-1.5-3.6-3.8-3.6c-2-0.1-3.8,1.4-3.9,3.5
		c0,0.1,0,0.1,0,0.2H151.1z"/>
	<path class="st0" d="M170.9,162.4L170.9,162.4c-1.2,1.8-3.2,2.8-5.3,2.6c-5.2,0-7.7-4.4-7.7-9.2s2.6-8.9,7.6-8.9
		c2-0.1,3.9,0.9,5.1,2.6h0.1v-8.6h4.7v23.7h-4.5L170.9,162.4z M166.8,150.5c-3.1,0-4.1,2.7-4.1,5.5s1.2,5.5,4.1,5.5
		c3.1,0,4.1-2.7,4.1-5.6S169.8,150.5,166.8,150.5L166.8,150.5z"/>
	<path class="st0" d="M81.6,187.3H85v3.2h-3.4v8.5c0,1.6,0.4,2,2,2c0.5,0,1,0,1.5-0.1v3.7c-0.9,0.1-1.8,0.2-2.8,0.2
		c-2.9,0-5.4-0.7-5.4-4.1v-10.2H74v-3.2h2.9v-5.1h4.7L81.6,187.3z"/>
	<path class="st0" d="M87.3,187.3h4.5v3.2h0.1c0.9-2.2,3.1-3.6,5.5-3.6c0.3,0,0.7,0.1,1,0.2v4.4c-0.6-0.1-1.1-0.2-1.7-0.2
		c-3.5,0-4.7,2.5-4.7,5.5v7.8h-4.7V187.3z"/>
	<path class="st0" d="M100,192.6c0.3-4.4,4.2-5.8,8.1-5.8c3.4,0,7.5,0.8,7.5,4.9v8.9c-0.1,1.3,0.1,2.6,0.6,3.8h-4.8
		c-0.2-0.5-0.3-1.1-0.3-1.7c-1.6,1.5-3.6,2.2-5.8,2.1c-3.3,0-5.8-1.6-5.8-5.1c0-3.9,2.9-4.8,5.8-5.2s5.6-0.3,5.6-2.3
		s-1.4-2.3-3.1-2.3s-2.9,0.7-3.1,2.6L100,192.6z M110.9,196.1c-0.8,0.7-2.5,0.7-3.9,1s-2.8,0.8-2.8,2.5s1.4,2.2,2.9,2.2
		c3.7,0,3.8-2.9,3.8-3.9V196.1z"/>
	<path class="st0" d="M131.6,202.3L131.6,202.3c-1.2,1.8-3.2,2.8-5.3,2.7c-5.2,0-7.7-4.4-7.7-9.2s2.6-8.9,7.6-8.9
		c2-0.1,3.9,0.9,5.1,2.6h0.1v-8.6h4.7v23.7h-4.5L131.6,202.3z M127.4,190.4c-3.1,0-4.2,2.6-4.2,5.5s1.2,5.5,4.2,5.5
		c3.1,0,4-2.7,4-5.6S130.5,190.4,127.4,190.4z"/>
	<path class="st0" d="M143.5,197.1c0.1,3,1.6,4.4,4.2,4.4c1.6,0.1,3-0.8,3.7-2.2h4.1c-1.3,4.1-4.1,5.8-8,5.8c-5.4,0-8.8-3.7-8.8-9
		c0-5.1,3.6-9.1,8.8-9.1c5.9,0,8.7,4.9,8.3,10.2L143.5,197.1z M151.1,194.1c-0.4-2.4-1.5-3.6-3.8-3.6c-2-0.1-3.8,1.4-3.9,3.5
		c0,0.1,0,0.1,0,0.2H151.1z"/>
	<path class="st0" d="M162.3,198.9c0,2.1,1.8,2.9,3.6,2.9c1.4,0,3.1-0.5,3.1-2.2c0-1.4-2-1.9-5.4-2.7c-2.7-0.6-5.4-1.6-5.4-4.6
		c0-4.4,3.8-5.5,7.5-5.5s7.2,1.3,7.6,5.5h-4.5c-0.1-1.8-1.5-2.3-3.2-2.3c-1.1,0-2.6,0.2-2.6,1.6c0,1.7,2.7,1.9,5.4,2.6
		s5.4,1.6,5.4,4.8c0,4.5-3.9,6-7.8,6s-7.9-1.5-8.1-6.1L162.3,198.9z"/>
	<path class="st1" d="M148.8,41.8c0.1,0.8,0.1,1.6-0.1,2.5c-0.9,2.3,2.1,4.6,2.1,4.6s3.3-1.5,2.3-4.6c-0.1-1.1,0-2.6,0-2.6
		L148.8,41.8z"/>
	<path class="st1" d="M147,36.5c0,0-0.5-0.3-0.9,0.4c-0.3,0.7,0.1,1.6,0.8,1.8c0,0,0,0,0.1,0C147.6,38.9,147,36.5,147,36.5z"/>
	<path class="st1" d="M155.6,36.5c0,0,0.6-0.2,0.8,0.5s-0.6,1.8-1.2,1.7S155.6,36.5,155.6,36.5z"/>
	<path class="st1" d="M155.6,37.4c0,3-2.1,5.5-4.4,5.5s-4.3-2.5-4.3-5.5s2-5.5,4.3-5.5c1.8,0,3.5,1.2,4.2,2.9
		C155.6,35.7,155.7,36.5,155.6,37.4z"/>
	<path class="st2" d="M143.4,115.2c1-0.7,1.9-1.6,2.5-2.7c0.4-0.7,0.6-1.5,0.5-2.3c0-0.6,0-1.2,0.1-1.8l-3.9,0.2
		c0,0-0.5,1.3-1.1,2.8c-0.4,1-0.7,2.1-0.7,3.2c0.3-0.2,0.6-0.3,0.9-0.3C142.2,114.3,142.8,115.5,143.4,115.2z"/>
	<path class="st2" d="M144.8,114.7c1-1,1.7-2.3,2.1-3.6c0.2-0.9,0.2-1.8,0-2.8h-0.4c-0.1,0.6-0.2,1.2-0.1,1.8
		c0.1,0.8-0.1,1.6-0.5,2.3c-0.6,1.1-1.4,2.1-2.5,2.7c-0.6,0.2-1.2-0.9-1.7-0.9c-0.3,0-0.6,0.1-0.9,0.3c0,0.2,0.1,0.5,0.2,0.7
		C141.8,116.2,143.6,116.1,144.8,114.7z"/>
	<path class="st2" d="M143.1,109.6c0,0-0.4,1.3-0.8,1.9s-0.4,1.1,0,1.3s1-0.1,1.3-1c0.2-0.7,0.3-1.5,0.3-2.2L143.1,109.6z"/>
	<path class="st2" d="M161.4,115.2c-1-0.7-1.9-1.6-2.5-2.7c-0.4-0.7-0.6-1.5-0.5-2.3c0-0.6,0-1.2-0.1-1.8l3.9,0.2
		c0,0,0.5,1.3,1.1,2.8c0.4,1,0.6,2.1,0.6,3.2c-0.3-0.2-0.6-0.3-0.9-0.3C162.6,114.3,162,115.5,161.4,115.2z"/>
	<path class="st2" d="M160,114.7c-1-1-1.7-2.3-2.1-3.6c-0.2-0.9-0.2-1.8,0-2.8h0.4c0.1,0.6,0.2,1.2,0.1,1.8
		c-0.1,0.8,0.1,1.6,0.5,2.3c0.6,1.1,1.4,2.1,2.5,2.7c0.6,0.2,1.2-0.9,1.7-0.9c0.3,0,0.6,0.1,0.9,0.3c0,0.2-0.1,0.5-0.2,0.7
		C163.1,116.2,161.2,116.1,160,114.7z"/>
	<path class="st2" d="M161.7,109.6c0,0,0.4,1.3,0.8,1.9s0.4,1.1,0,1.3s-1-0.1-1.3-1c-0.2-0.7-0.3-1.5-0.3-2.2L161.7,109.6z"/>
	<path class="st3" d="M161.8,87.5c-0.6-3.5-4-24.4-4-24.4l-2.7-12.7h-8.9l-2.7,12.5c0,0-1,13-1.7,19.2c-0.6,5.7-1.3,27.6-1.3,27.6
		l7.4-0.2c0,0,0.3-19.4,0.7-21.7s2.2-13.6,2.2-13.6s2.6,10.6,3,13.8s3.6,21.6,3.6,21.6h5.9C163.4,109.6,162.4,91.1,161.8,87.5z"/>
	<path class="st3" d="M157,55.8c0-1.5-1.9-4.2-1.4-4.5s3.4,1.9,4.6,2.8s5.4,2.3,6.4,2.5s3.4-2.9,4.5-4.1c0.7-0.9,2.3-2.6,3.3-3.6
		l-2.2-2.2c0,0-2.5,2.2-3.3,2.8c-1.2,0.9-2.8,2.2-2.8,2.2s-5.9-4.6-6.7-5c-1.5-0.6-6.2-2.5-6.2-2.5c0,1.1-0.9,2-2,2
		c-0.1,0-0.1,0-0.2,0c-1.2,0.1-2.3-0.8-2.4-2c0,0-5.6,1.9-6.7,2.8s-4.1,5.2-5.2,7.2c-0.9,1.5-2.9,4.9-3.4,5.9
		c-0.8,1.3,1.4,4,2.6,5.5c0.9,1,1.9,2,3,2.8l2.4-1.3c-0.9-1.4-2.6-4.2-3.2-5.2c-0.9-1.5-1.5-1.6-0.6-2.6s5.8-6.7,6.3-8.1
		s0.8-0.7,0.6,0.7s1.8,5.6,1.2,7s-1,5.3-0.2,6l0.1,0.1h9.8c0.4-1.1,0.9-2.3,1-2.7C156.8,60.1,157,57.9,157,55.8z"/>
	<path class="st3" d="M159,62.3c-0.2-1.7-0.9-8.1-0.9-8.1s4.6,1.9,5.9,2.6c1.4,1,3.4,0.9,4.7-0.3c1.9-1.6,6.3-7,6.3-7l-0.7-0.7
		c-0.9,1-2.5,2.7-3.3,3.6c-1.1,1.2-3.4,4.3-4.5,4.1s-5.2-1.5-6.4-2.5s-4.1-3.1-4.6-2.8s1.4,3.1,1.4,4.6c0,2.2-0.2,4.4-0.6,6.6
		c-0.2,0.5-0.6,1.6-1,2.7h2.7C158.8,64.3,159.1,63.3,159,62.3z"/>
	<path class="st3" d="M145.6,58.9c0.6-1.5-1.3-5.6-1.2-7s-0.1-2-0.6-0.7s-5.4,7-6.3,8.1s-0.3,1.2,0.6,2.6c0.6,1.1,2.3,3.8,3.2,5.2
		l0.5-0.6l-3-6.4l4.4-4.6c0.1,1.9,0,3.9-0.2,5.8c-0.2,1.2-0.1,2.5,0.4,3.7h2.2l-0.1-0.1C144.7,64.2,145,60.4,145.6,58.9z"/>
	<rect x="150.4" y="50.5" class="st3" width="1.2" height="15"/>
	<polygon class="st2" points="158.5,67.4 143.2,67.4 143.4,65.1 158.1,65.1 	"/>
	<rect x="150.1" y="67.3" class="st2" width="7.3" height="9.2"/>
	<path class="st4" d="M152,68.8c0-1.1,0.1-2.1,0.3-3.1c0.4-1.8,0.9-3,1.4-2.8s-0.2,1.7-0.5,3.1c-0.2,1.2-0.4,3.1-0.4,3.1L152,68.8z"
		/>
	<path class="st4" d="M154.3,69.6c0.6-0.8,1.2-1.7,1.6-2.7c0.7-1.7,1-2.9,0.6-3.1s-0.8,1.5-1.4,2.8c-0.5,1-1.5,2.7-1.5,2.7
		L154.3,69.6z"/>
	<rect x="151.3" y="67.3" class="st2" width="5" height="8.1"/>
	<path class="st0" d="M157.7,66.2c0,0.2-0.1,0.3-0.3,0.3s-0.3-0.1-0.3-0.3s0.1-0.3,0.3-0.3S157.7,66,157.7,66.2z"/>
	<path class="st0" d="M144.5,66.2c0,0.2-0.1,0.3-0.3,0.3c0,0,0,0,0,0c-0.2,0-0.3-0.1-0.3-0.3v0c0-0.2,0.1-0.3,0.3-0.3c0,0,0,0,0,0
		C144.3,65.9,144.5,66,144.5,66.2L144.5,66.2z"/>
	<path class="st3" d="M156,36.1c-0.1-3.6-0.9-6.5-4.8-6.5c-3.7,0-4.7,2.9-4.8,6.5H156z"/>
	<rect x="146" y="35.4" class="st3" width="10.4" height="1"/>
	<path class="st3" d="M150.2,33.6l-2-3c0.2-0.4,0.5-0.8,0.9-1c1-0.4,1.4,0.1,1.4,0.1L150.2,33.6z"/>
	<path class="st3" d="M152.4,33.6l1.9-3c-0.2-0.4-0.5-0.8-0.9-1c-1-0.4-1.4,0.1-1.4,0.1L152.4,33.6z"/>
	<path class="st3" d="M146,36.4c1.7,0.6,3.5,0.9,5.3,0.9c1.8,0,3.5-0.3,5.1-0.9H146z"/>
	<path class="st0" d="M148.4,45.3c0.7,0.5,1.5,0.7,2.3,0.6c1,0,1.9-0.2,2.8-0.6l-2.6,5.6L148.4,45.3z"/>
	<path class="st3" d="M148.8,42.9c-0.6,0.1-1.1,0.3-1.5,0.6c-0.4,0.5-0.6,1-0.9,1.5l0.4,1.2l1.4,0.4l-0.8,1.4l3.5,2.9
		C150,48.3,149.3,45.6,148.8,42.9z"/>
	<path class="st3" d="M153,42.9c0.6,0.1,1.1,0.3,1.5,0.6c0.4,0.5,0.6,1,0.8,1.6l-0.4,1.1l-1.4,0.4l0.8,1.4l-3.3,2.9
		C151.9,48.3,152.6,45.6,153,42.9z"/>
	<circle class="st0" cx="151" cy="51.8" r="0.3"/>
	<circle class="st0" cx="151" cy="54.8" r="0.3"/>
	<circle class="st0" cx="151" cy="57.7" r="0.3"/>
	<circle class="st0" cx="151" cy="60.6" r="0.3"/>
	<circle class="st0" cx="151" cy="63.6" r="0.3"/>
	<rect x="127.3" y="114.4" class="st5" width="53.7" height="4.4"/>
	<path class="st5" d="M128.8,114.5V71.4c0-0.8,0.7-1.4,1.5-1.4H178c0.8,0,1.5,0.7,1.5,1.5v43.1h1.5V71.4c0-1.7-1.3-3-3-3h-47.7
		c-1.7,0-3,1.3-3,3v43.1H128.8z"/>
	<rect x="135.8" y="69.2" class="st5" width="1.3" height="46"/>
	<rect x="144.5" y="69.2" class="st5" width="1.3" height="46"/>
	<rect x="153.2" y="69.2" class="st5" width="1.3" height="46"/>
	<rect x="161.9" y="69.2" class="st5" width="1.3" height="46"/>
	<rect x="170.6" y="69.2" class="st5" width="1.3" height="46"/>
	<rect x="128" y="100.7" class="st5" width="52.3" height="1.3"/>
	<path class="st6" d="M138.9,68.4c0.7,1.2,1.6,2.3,2.6,3.3c1.7,1.1,3.7,1.2,4.3-1c0.1-0.5-3.9-4.2-3.9-4.2
		C140.7,66.9,139.7,67.6,138.9,68.4z"/>
	<path class="st6" d="M172.1,46.7c0.7-1.4,1.1-2.8,1.4-4.3c0-1.4,0-3,0.8-2.6s0.7,1.8,0.7,3.4c0,0.7,0.8,0.3,1.3,0s2.3-2.9,3.9-1.5
		s0.4,2.9-0.6,3.6s-4.7,4.2-4.7,4.2L172.1,46.7z"/>
	<rect x="28.8" y="124.5" class="st0" width="200.2" height="1"/>
</g>
</svg>
