<?xml version="1.0" encoding="utf-8"?>
<!-- Generator: Adobe Illustrator 21.1.0, SVG Export Plug-In . SVG Version: 6.00 Build 0)  -->
<svg version="1.1" id="Слой_1" xmlns="http://www.w3.org/2000/svg" xmlns:xlink="http://www.w3.org/1999/xlink" x="0px" y="0px"
	 viewBox="0 0 40 40" style="enable-background:new 0 0 40 40;" xml:space="preserve">
<g id="Map_1_">
	<g>
		<circle style="fill:none;stroke:#74757E;stroke-width:2;stroke-miterlimit:10;" cx="15.7" cy="15.7" r="10.9"/>
		<g>
			
				<rect x="26.1" y="21.1" transform="matrix(0.7071 -0.7071 0.7071 0.7071 -11.7579 28.386)" style="fill:#74757E;" width="4.6" height="14.6"/>
		</g>
		<g>
			<path style="fill:#74757E;" d="M16.4,15.1h5.6v2.3h-5.6h-1.3H9.5v-2.3h5.6H16.4z"/>
		</g>
	</g>
</g>
</svg>
